{
    "_": {
        "editor": {
            "view": {
                "view-grid-size": "20",
                "view-node-status": true,
                "view-node-show-label": true,
                "view-show-tips": true,
                "view-snap-grid": true,
                "view-show-grid": true
            }
        },
        "menu-deploymenu-item-flow": false,
        "menu-deploymenu-item-full": false,
        "menu-menu-item-sidebar": true,
        "menu-deploymenu-item-node": true
    }
}